,temp,humidity,pressure,description,dt,wind_speed,wind_deg,city,date,distance
0,15.4,71,1023,overcast clouds,1696809600,1.84,77,buzet,2023-10-09 02:00:00,40
1,15.4,76,1023,overcast clouds,1696813200,1.89,74,buzet,2023-10-09 03:00:00,40
2,14.4,79,1023,overcast clouds,1696816800,1.91,74,buzet,2023-10-09 04:00:00,40
3,15.4,79,1023,overcast clouds,1696820400,1.9,72,buzet,2023-10-09 05:00:00,40
4,15.4,77,1023,overcast clouds,1696824000,1.91,70,buzet,2023-10-09 06:00:00,40
5,14.4,76,1023,overcast clouds,1696827600,1.8,77,buzet,2023-10-09 07:00:00,40
6,15.4,75,1023,overcast clouds,1696831200,1.57,83,buzet,2023-10-09 08:00:00,40
7,17.4,67,1023,overcast clouds,1696834800,1.09,120,buzet,2023-10-09 09:00:00,40
8,21.4,59,1022,overcast clouds,1696838400,1.0,182,buzet,2023-10-09 10:00:00,40
9,22.4,54,1022,overcast clouds,1696842000,1.2,210,buzet,2023-10-09 11:00:00,40
10,23.4,51,1022,overcast clouds,1696845600,1.42,217,buzet,2023-10-09 12:00:00,40
11,24.4,48,1021,overcast clouds,1696849200,1.57,216,buzet,2023-10-09 13:00:00,40
12,24.4,47,1021,overcast clouds,1696852800,1.66,225,buzet,2023-10-09 14:00:00,40
13,24.4,48,1020,broken clouds,1696856400,1.92,216,buzet,2023-10-09 15:00:00,40
14,25.4,52,1019,broken clouds,1696860000,1.78,210,buzet,2023-10-09 16:00:00,40
15,23.4,64,1019,broken clouds,1696863600,1.06,205,buzet,2023-10-09 17:00:00,40
16,22.4,78,1019,broken clouds,1696867200,1.02,143,buzet,2023-10-09 18:00:00,40
17,22.4,82,1020,broken clouds,1696870800,1.63,109,buzet,2023-10-09 19:00:00,40
18,14.4,66,1024,few clouds,1696723200,1.29,11,buzet,2023-10-08 02:00:00,40
19,13.4,71,1023,scattered clouds,1696726800,1.13,21,buzet,2023-10-08 03:00:00,40
20,13.4,73,1023,scattered clouds,1696730400,1.13,28,buzet,2023-10-08 04:00:00,40
21,13.4,76,1023,scattered clouds,1696734000,1.47,25,buzet,2023-10-08 05:00:00,40
22,12.4,76,1023,scattered clouds,1696737600,1.15,10,buzet,2023-10-08 06:00:00,40
23,12.4,77,1023,few clouds,1696741200,1.38,21,buzet,2023-10-08 07:00:00,40
24,13.4,75,1023,overcast clouds,1696744800,1.05,37,buzet,2023-10-08 08:00:00,40
25,16.4,66,1023,overcast clouds,1696748400,0.97,0,buzet,2023-10-08 09:00:00,40
26,21.4,58,1023,overcast clouds,1696752000,1.51,309,buzet,2023-10-08 10:00:00,40
27,23.4,54,1023,overcast clouds,1696755600,1.95,300,buzet,2023-10-08 11:00:00,40
28,23.4,51,1023,overcast clouds,1696759200,2.02,293,buzet,2023-10-08 12:00:00,40
29,23.4,48,1023,overcast clouds,1696762800,2.04,297,buzet,2023-10-08 13:00:00,40
30,23.4,47,1022,overcast clouds,1696766400,1.71,282,buzet,2023-10-08 14:00:00,40
31,23.4,47,1022,overcast clouds,1696770000,1.65,282,buzet,2023-10-08 15:00:00,40
32,23.4,49,1021,overcast clouds,1696773600,1.27,268,buzet,2023-10-08 16:00:00,40
33,22.4,59,1021,overcast clouds,1696777200,0.6,255,buzet,2023-10-08 17:00:00,40
34,21.4,69,1021,overcast clouds,1696780800,0.47,234,buzet,2023-10-08 18:00:00,40
35,19.4,76,1022,overcast clouds,1696784400,0.92,55,buzet,2023-10-08 19:00:00,40
36,18.4,77,1022,overcast clouds,1696788000,1.28,65,buzet,2023-10-08 20:00:00,40
37,17.4,77,1023,overcast clouds,1696791600,1.27,66,buzet,2023-10-08 21:00:00,40
38,17.4,74,1023,broken clouds,1696795200,1.46,57,buzet,2023-10-08 22:00:00,40
39,16.4,70,1023,broken clouds,1696798800,1.54,72,buzet,2023-10-08 23:00:00,40
40,15.4,69,1023,broken clouds,1696802400,1.63,74,buzet,2023-10-09 00:00:00,40
41,15.4,69,1023,broken clouds,1696806000,1.72,70,buzet,2023-10-09 01:00:00,40
42,12.4,70,1025,clear sky,1696636800,1.4,51,buzet,2023-10-07 02:00:00,40
43,12.4,68,1024,few clouds,1696640400,1.41,50,buzet,2023-10-07 03:00:00,40
44,11.4,66,1024,scattered clouds,1696644000,1.46,46,buzet,2023-10-07 04:00:00,40
45,11.4,64,1023,scattered clouds,1696647600,1.45,47,buzet,2023-10-07 05:00:00,40
46,11.4,62,1023,scattered clouds,1696651200,1.45,47,buzet,2023-10-07 06:00:00,40
47,11.4,60,1023,scattered clouds,1696654800,1.37,48,buzet,2023-10-07 07:00:00,40
48,11.4,59,1023,few clouds,1696658400,1.26,45,buzet,2023-10-07 08:00:00,40
49,14.4,54,1024,scattered clouds,1696662000,0.86,26,buzet,2023-10-07 09:00:00,40
50,18.4,49,1024,scattered clouds,1696665600,1.15,338,buzet,2023-10-07 10:00:00,40
51,22.4,46,1024,few clouds,1696669200,1.67,314,buzet,2023-10-07 11:00:00,40
52,21.4,44,1024,few clouds,1696672800,1.81,302,buzet,2023-10-07 12:00:00,40
53,22.4,42,1023,few clouds,1696676400,1.82,292,buzet,2023-10-07 13:00:00,40
54,23.4,41,1023,clear sky,1696680000,1.84,285,buzet,2023-10-07 14:00:00,40
55,23.4,42,1022,clear sky,1696683600,1.9,284,buzet,2023-10-07 15:00:00,40
56,23.4,44,1022,clear sky,1696687200,1.77,291,buzet,2023-10-07 16:00:00,40
57,23.4,54,1022,clear sky,1696690800,1.41,296,buzet,2023-10-07 17:00:00,40
58,21.4,65,1023,clear sky,1696694400,0.98,306,buzet,2023-10-07 18:00:00,40
59,16.4,70,1023,clear sky,1696698000,0.83,14,buzet,2023-10-07 19:00:00,40
60,15.4,70,1023,broken clouds,1696701600,1.07,31,buzet,2023-10-07 20:00:00,40
61,16.85,69,1024,broken clouds,1696705200,1.16,35,buzet,2023-10-07 21:00:00,40
62,15.4,67,1024,broken clouds,1696708800,1.21,39,buzet,2023-10-07 22:00:00,40
63,15.4,65,1024,broken clouds,1696712400,1.21,34,buzet,2023-10-07 23:00:00,40
64,15.4,62,1024,overcast clouds,1696716000,1.02,43,buzet,2023-10-08 00:00:00,40
65,14.4,61,1023,overcast clouds,1696719600,0.99,13,buzet,2023-10-08 01:00:00,40
66,15.4,76,1024,overcast clouds,1696550400,1.54,46,buzet,2023-10-06 02:00:00,40
67,14.4,77,1024,overcast clouds,1696554000,1.61,54,buzet,2023-10-06 03:00:00,40
68,13.4,76,1023,overcast clouds,1696557600,1.6,57,buzet,2023-10-06 04:00:00,40
69,13.4,77,1024,overcast clouds,1696561200,1.71,51,buzet,2023-10-06 05:00:00,40
70,13.4,77,1024,broken clouds,1696564800,1.92,55,buzet,2023-10-06 06:00:00,40
71,13.4,78,1024,broken clouds,1696568400,2.06,57,buzet,2023-10-06 07:00:00,40
72,13.4,76,1025,clear sky,1696572000,2.02,63,buzet,2023-10-06 08:00:00,40
73,15.4,66,1025,clear sky,1696575600,1.87,66,buzet,2023-10-06 09:00:00,40
74,20.4,55,1025,clear sky,1696579200,1.85,66,buzet,2023-10-06 10:00:00,40
75,21.4,48,1025,clear sky,1696582800,1.66,54,buzet,2023-10-06 11:00:00,40
76,22.4,45,1025,clear sky,1696586400,1.62,36,buzet,2023-10-06 12:00:00,40
77,24.4,43,1025,few clouds,1696590000,1.61,30,buzet,2023-10-06 13:00:00,40
78,24.4,41,1024,clear sky,1696593600,1.4,31,buzet,2023-10-06 14:00:00,40
79,25.4,41,1024,clear sky,1696597200,1.46,28,buzet,2023-10-06 15:00:00,40
80,24.4,42,1024,clear sky,1696600800,1.2,22,buzet,2023-10-06 16:00:00,40
81,23.4,53,1024,clear sky,1696604400,0.85,6,buzet,2023-10-06 17:00:00,40
82,22.4,65,1024,few clouds,1696608000,0.69,38,buzet,2023-10-06 18:00:00,40
83,19.4,70,1025,scattered clouds,1696611600,1.15,65,buzet,2023-10-06 19:00:00,40
84,16.4,73,1025,few clouds,1696615200,1.35,69,buzet,2023-10-06 20:00:00,40
85,15.4,74,1025,few clouds,1696618800,1.34,61,buzet,2023-10-06 21:00:00,40
86,14.4,74,1025,few clouds,1696622400,1.43,56,buzet,2023-10-06 22:00:00,40
87,13.4,74,1025,few clouds,1696626000,1.52,52,buzet,2023-10-06 23:00:00,40
88,13.4,73,1025,few clouds,1696629600,1.57,53,buzet,2023-10-07 00:00:00,40
89,12.4,71,1025,few clouds,1696633200,1.58,53,buzet,2023-10-07 01:00:00,40
90,14.4,71,1025,overcast clouds,1696464000,1.81,47,buzet,2023-10-05 02:00:00,40
91,13.4,74,1024,overcast clouds,1696467600,1.82,52,buzet,2023-10-05 03:00:00,40
92,12.4,78,1024,overcast clouds,1696471200,1.97,53,buzet,2023-10-05 04:00:00,40
93,13.4,78,1024,broken clouds,1696474800,1.97,61,buzet,2023-10-05 05:00:00,40
94,11.4,77,1024,scattered clouds,1696478400,1.99,56,buzet,2023-10-05 06:00:00,40
95,11.4,75,1024,scattered clouds,1696482000,1.91,60,buzet,2023-10-05 07:00:00,40
96,12.4,73,1025,overcast clouds,1696485600,1.92,58,buzet,2023-10-05 08:00:00,40
97,15.4,63,1024,overcast clouds,1696489200,1.62,65,buzet,2023-10-05 09:00:00,40
98,18.4,54,1025,overcast clouds,1696492800,1.28,45,buzet,2023-10-05 10:00:00,40
99,21.4,49,1024,overcast clouds,1696496400,1.08,48,buzet,2023-10-05 11:00:00,40
100,22.4,46,1024,overcast clouds,1696500000,0.63,21,buzet,2023-10-05 12:00:00,40
101,23.4,44,1024,broken clouds,1696503600,0.55,346,buzet,2023-10-05 13:00:00,40
102,23.4,44,1023,overcast clouds,1696507200,0.59,298,buzet,2023-10-05 14:00:00,40
103,22.4,46,1023,overcast clouds,1696510800,0.99,277,buzet,2023-10-05 15:00:00,40
104,22.4,48,1023,overcast clouds,1696514400,1.35,281,buzet,2023-10-05 16:00:00,40
105,22.4,58,1023,overcast clouds,1696518000,1.5,292,buzet,2023-10-05 17:00:00,40
106,22.4,68,1023,overcast clouds,1696521600,0.93,322,buzet,2023-10-05 18:00:00,40
107,18.4,71,1023,overcast clouds,1696525200,0.82,34,buzet,2023-10-05 19:00:00,40
108,16.4,70,1023,overcast clouds,1696528800,1.04,52,buzet,2023-10-05 20:00:00,40
109,15.4,70,1024,overcast clouds,1696532400,1.14,56,buzet,2023-10-05 21:00:00,40
110,15.4,70,1024,overcast clouds,1696536000,1.14,56,buzet,2023-10-05 22:00:00,40
111,15.4,71,1024,overcast clouds,1696539600,1.2,58,buzet,2023-10-05 23:00:00,40
112,15.4,72,1024,overcast clouds,1696543200,1.41,41,buzet,2023-10-06 00:00:00,40
113,14.4,75,1024,overcast clouds,1696546800,1.47,50,buzet,2023-10-06 01:00:00,40
